<svg width="42" height="42" viewBox="0 0 42 42" fill="none" xmlns="http://www.w3.org/2000/svg">
    <mask id="mask0_2_802" style="mask-type:luminance" maskUnits="userSpaceOnUse" x="0" y="0" width="42" height="43">
        <path d="M41.834 0.333984H0.166992V42.001H41.834V0.333984Z" fill="white"/>
    </mask>
    <g mask="url(#mask0_2_802)">
        <path d="M40.8811 21.1671C40.8813 25.0993 39.7155 28.9432 37.531 32.2128C35.3465 35.4823 32.2416 38.0307 28.6087 39.5356C24.9759 41.0404 20.9784 41.4342 17.1218 40.6671C13.2652 39.9001 9.72263 38.0066 6.94216 35.2261C4.16169 32.4456 2.26819 28.9031 1.50111 25.0465C0.734028 21.1898 1.12782 17.1923 2.63269 13.5595C4.13756 9.9267 6.68591 6.82172 9.95548 4.63725C13.225 2.45277 17.069 1.28691 21.0012 1.28711C26.2737 1.28711 31.3302 3.3816 35.0584 7.10983C38.7867 10.838 40.8811 15.8946 40.8811 21.1671Z" fill="#FFA300"/>
        <path d="M40.8811 21.1671C40.8813 25.0993 39.7155 28.9432 37.531 32.2128C35.3465 35.4823 32.2416 38.0307 28.6087 39.5356C24.9759 41.0404 20.9784 41.4342 17.1218 40.6671C13.2652 39.9001 9.72263 38.0066 6.94216 35.2261C4.16169 32.4456 2.26819 28.9031 1.50111 25.0465C0.734028 21.1898 1.12782 17.1923 2.63269 13.5595C4.13756 9.9267 6.68591 6.82172 9.95548 4.63725C13.225 2.45277 17.069 1.28691 21.0012 1.28711C23.6118 1.28711 26.1969 1.80132 28.6089 2.80038C31.0208 3.79945 33.2124 5.2638 35.0584 7.10983C36.9045 8.95586 38.3688 11.1474 39.3679 13.5594C40.3669 15.9713 40.8811 18.5564 40.8811 21.1671Z" stroke="black" stroke-width="3" stroke-miterlimit="10"/>
        <path d="M21.6991 8.46599L24.9541 15.066C25.0098 15.1793 25.0922 15.2773 25.1944 15.3516C25.2965 15.4258 25.4152 15.474 25.5401 15.492L32.8191 16.55C32.963 16.5708 33.0983 16.6315 33.2095 16.7252C33.3207 16.8189 33.4035 16.9418 33.4484 17.0801C33.4934 17.2184 33.4987 17.3666 33.4639 17.5077C33.429 17.6489 33.3553 17.7775 33.2511 17.879L27.9841 23.012C27.8935 23.1001 27.8257 23.209 27.7867 23.3292C27.7476 23.4495 27.7385 23.5774 27.7601 23.702L29.0031 30.951C29.0273 31.0942 29.0111 31.2414 28.9562 31.3759C28.9012 31.5104 28.8098 31.6269 28.6922 31.7123C28.5747 31.7976 28.4356 31.8484 28.2907 31.859C28.1458 31.8695 28.0008 31.8394 27.8721 31.772L21.3621 28.35C21.2503 28.2912 21.1259 28.2605 20.9996 28.2605C20.8733 28.2605 20.7489 28.2912 20.6371 28.35L14.1281 31.772C13.9995 31.8398 13.8544 31.8703 13.7093 31.8599C13.5642 31.8495 13.425 31.7987 13.3073 31.7133C13.1896 31.6278 13.0981 31.5111 13.0433 31.3764C12.9885 31.2417 12.9725 31.0943 12.9971 30.951L14.2401 23.702C14.2615 23.5774 14.2522 23.4496 14.2132 23.3294C14.1742 23.2092 14.1066 23.1003 14.0161 23.012L8.74912 17.879C8.64495 17.7775 8.57126 17.6489 8.5364 17.5077C8.50153 17.3666 8.50687 17.2184 8.55183 17.0801C8.59678 16.9418 8.67955 16.8189 8.79077 16.7252C8.90198 16.6315 9.0372 16.5708 9.18112 16.55L16.4591 15.492C16.5842 15.4738 16.7029 15.4256 16.8051 15.3514C16.9074 15.2772 16.9901 15.1792 17.0461 15.066L20.3011 8.46599C20.3651 8.33487 20.4647 8.22438 20.5885 8.14708C20.7122 8.06979 20.8552 8.02881 21.0011 8.02881C21.147 8.02881 21.29 8.06979 21.4138 8.14708C21.5375 8.22438 21.6371 8.33487 21.7011 8.46599" fill="black"/>
    </g>
</svg>
