<svg width="228" height="40" viewBox="0 0 228 40" fill="none" xmlns="http://www.w3.org/2000/svg">
    <mask id="mask0_2_414" style="mask-type:luminance" maskUnits="userSpaceOnUse" x="0" y="0" width="228" height="40">
        <path d="M227.141 0H0V39.541H227.141V0Z" fill="white"/>
    </mask>
    <g mask="url(#mask0_2_414)">
        <path d="M6.98492 27.5131C7.32881 28.1921 7.82924 28.7796 8.44492 29.2271C9.09009 29.6825 9.81495 30.0129 10.5819 30.2011C11.4118 30.4137 12.2653 30.5202 13.1219 30.5181C13.758 30.515 14.393 30.4655 15.0219 30.3701C15.6804 30.2766 16.321 30.0841 16.9219 29.7991C17.4983 29.5298 18.0051 29.1315 18.4029 28.6351C18.8131 28.0952 19.0228 27.4295 18.9959 26.7521C19.0106 26.3842 18.9485 26.0173 18.8137 25.6747C18.6789 25.3321 18.4743 25.0213 18.2129 24.7621C17.6182 24.2089 16.9207 23.7777 16.1599 23.4931C15.2237 23.1264 14.2618 22.8292 13.2819 22.6041C12.2099 22.3507 11.1236 22.0687 10.0229 21.7581C8.90308 21.4786 7.80109 21.132 6.72292 20.7201C5.69133 20.3342 4.72173 19.7996 3.84492 19.1331C2.99608 18.478 2.29826 17.6479 1.79892 16.6991C1.24855 15.6044 0.979457 14.3898 1.01592 13.1651C0.980609 11.7531 1.32418 10.3574 2.01092 9.12307C2.66058 7.99378 3.54768 7.01899 4.61092 6.26607C5.71414 5.49016 6.94671 4.91688 8.25092 4.57307C9.57496 4.21084 10.9412 4.02589 12.3139 4.02307C13.8462 4.0176 15.3737 4.19519 16.8639 4.55207C18.2509 4.87572 19.5647 5.45715 20.7369 6.26607C21.8586 7.04877 22.7794 8.08566 23.4239 9.29207C24.1247 10.6736 24.4685 12.2086 24.4239 13.7571H17.9889C17.9647 12.9767 17.7698 12.2111 17.4179 11.5141C17.1153 10.944 16.6706 10.4618 16.1269 10.1141C15.5624 9.76462 14.9388 9.52097 14.2869 9.39507C13.5413 9.24857 12.7828 9.17755 12.0229 9.18307C11.4825 9.18399 10.9436 9.24096 10.4149 9.35307C9.89553 9.459 9.4002 9.66004 8.95392 9.94607C8.52356 10.2205 8.15535 10.5819 7.87292 11.0071C7.57449 11.4888 7.42716 12.0489 7.44992 12.6151C7.42717 13.1168 7.54418 13.615 7.78792 14.0541C8.12796 14.5117 8.59039 14.8639 9.12192 15.0701C10.0105 15.4587 10.9309 15.7702 11.8729 16.0011C13.0429 16.3117 14.5736 16.7067 16.4649 17.1861C17.0282 17.2987 17.8112 17.5034 18.8139 17.8001C19.8731 18.1233 20.8789 18.6008 21.7989 19.2171C22.8204 19.9006 23.6919 20.7853 24.3599 21.8171C25.1239 23.0695 25.4994 24.5203 25.4389 25.9861C25.452 27.3123 25.1792 28.6258 24.6389 29.8371C24.0928 31.0349 23.2715 32.0867 22.2419 32.9071C21.0724 33.8256 19.7357 34.5082 18.3059 34.9171C16.5387 35.4242 14.7062 35.6669 12.8679 35.6371C11.233 35.6406 9.60432 35.4342 8.02192 35.0231C6.53009 34.6486 5.12264 33.9951 3.87392 33.0971C2.67329 32.2211 1.69477 31.0757 1.01692 29.7531C0.279326 28.2563 -0.0707051 26.5983 -0.00108468 24.9311H6.43492C6.40739 25.8232 6.5961 26.7097 6.98492 27.5131Z" fill="black"/>
        <path d="M43.594 4.74288C44.9158 4.73159 46.235 4.85929 47.53 5.12388C48.6176 5.33807 49.6529 5.76233 50.578 6.37288C51.4266 6.95414 52.1058 7.75025 52.546 8.67988C53.0448 9.79682 53.2841 11.0122 53.246 12.2349C53.2956 13.5804 52.9338 14.9091 52.209 16.0439C51.4274 17.1361 50.3678 17.9993 49.14 18.5439C50.8202 18.956 52.2984 19.9537 53.309 21.3579C54.2542 22.7941 54.7346 24.4863 54.685 26.2049C54.7199 27.5774 54.4145 28.9371 53.796 30.1629C53.2276 31.2502 52.4079 32.1861 51.405 32.8929C50.3654 33.616 49.2043 34.1464 47.977 34.4589C46.6855 34.7984 45.3554 34.9691 44.02 34.9669H29.374V4.74288H43.594ZM42.748 16.9749C43.7875 17.0184 44.8128 16.7213 45.668 16.1289C46.0673 15.7974 46.38 15.3738 46.5792 14.8945C46.7783 14.4152 46.8579 13.8947 46.811 13.3779C46.8347 12.7763 46.7032 12.1788 46.429 11.6429C46.19 11.2065 45.8394 10.8414 45.413 10.5849C44.9627 10.3209 44.4679 10.1416 43.953 10.0559C43.3872 9.95583 42.8136 9.9063 42.239 9.90788H36.019V16.9759L42.748 16.9749ZM43.129 29.7989C43.7546 29.801 44.3787 29.7373 44.991 29.6089C45.5479 29.4962 46.0789 29.2809 46.557 28.9739C47.0141 28.671 47.3856 28.2557 47.636 27.7679C47.9247 27.1607 48.0619 26.4927 48.036 25.8209C48.0972 25.2026 48.01 24.5786 47.7819 24.0007C47.5537 23.4228 47.1911 22.9076 46.724 22.4979C45.7085 21.7924 44.488 21.4429 43.253 21.5039H36.019V29.8039L43.129 29.7989Z" fill="black"/>
        <path d="M72.2049 4.74324C74.0589 4.72748 75.9008 5.04276 77.6439 5.67424C79.2853 6.27196 80.774 7.2258 82.0029 8.46724C83.284 9.79574 84.2653 11.3834 84.8809 13.1232C85.6121 15.2313 85.9633 17.4524 85.9179 19.6832C85.9373 21.7455 85.6518 23.7994 85.0709 25.7782C84.5575 27.5451 83.6861 29.1875 82.5109 30.6032C81.3445 31.9772 79.8837 33.0709 78.2369 33.8032C76.3328 34.6186 74.2757 35.0155 72.2049 34.9672H59.1699V4.74324H72.2049ZM71.7399 29.3752C72.6903 29.377 73.6343 29.2198 74.5329 28.9102C75.4476 28.5922 76.2743 28.0629 76.9459 27.3652C77.7043 26.5582 78.2816 25.5985 78.6389 24.5502C79.0946 23.1868 79.3095 21.7544 79.2739 20.3172C79.2886 18.9292 79.1393 17.5442 78.8289 16.1912C78.5721 15.048 78.0744 13.9728 77.3689 13.0372C76.665 12.1428 75.7379 11.4495 74.6809 11.0272C73.3645 10.5254 71.9622 10.2876 70.5539 10.3272H65.8139V29.3752H71.7399Z" fill="black"/>
        <path d="M96.8099 0H96.4219V39.541H96.8099V0Z" fill="black"/>
        <path d="M114.505 13.9202C118.599 14.8132 120.489 16.3092 120.489 19.1432C120.489 22.3192 117.865 24.3662 114.216 24.3662C111.427 24.397 108.736 23.3432 106.709 21.4272L107.995 19.9042C108.818 20.737 109.799 21.3962 110.881 21.8428C111.964 22.2894 113.124 22.5143 114.295 22.5042C116.762 22.5042 118.389 21.2182 118.389 19.3552C118.389 17.6232 117.471 16.6552 113.612 15.8382C109.387 14.9192 107.444 13.5542 107.444 10.5102C107.444 7.57119 109.99 5.47119 113.48 5.47119C115.837 5.4039 118.135 6.20743 119.937 7.72819L118.73 9.32819C117.263 8.043 115.38 7.33252 113.43 7.32819C111.042 7.32819 109.52 8.64019 109.52 10.3202C109.52 12.0792 110.464 13.0502 114.507 13.9202" fill="black"/>
        <path d="M138.233 5.73096H140.254V24.103H138.601L126.738 9.03796V24.103H124.717V5.73096H126.66L138.233 20.455V5.73096Z" fill="black"/>
        <path d="M162.566 24.104H160.336L158.183 19.248H148.183L146.002 24.104H143.876L152.249 5.604H154.191L162.566 24.104ZM153.196 8.01501L148.996 17.385H157.368L153.196 8.01501Z" fill="black"/>
        <path d="M168.449 5.73096H166.375V24.103H168.449V5.73096Z" fill="black"/>
        <path d="M180.207 24.1039H173.829V5.73193H180.207C185.981 5.73193 189.971 9.69493 189.971 14.8909C189.971 20.0869 185.981 24.1039 180.207 24.1039ZM180.207 7.64793H175.907V22.1879H180.207C184.852 22.1879 187.818 19.0389 187.818 14.9439C187.818 10.8489 184.852 7.64393 180.207 7.64393" fill="black"/>
        <path d="M207.637 7.62093H196.428V13.8939H206.454V15.7839H196.428V22.2149H207.766V24.1049H194.356V5.73193H207.637V7.62093Z" fill="black"/>
        <path d="M224.595 24.1039L219.267 16.9649H214.018V24.1039H211.944V5.73193H219.844C223.885 5.73193 226.484 7.91093 226.484 11.2179C226.484 14.2889 224.384 16.0729 221.497 16.5979L227.14 24.1049L224.595 24.1039ZM219.687 7.64793H214.018V15.1009H219.661C222.417 15.1009 224.385 13.6839 224.385 11.2959C224.385 9.01193 222.653 7.64793 219.685 7.64793" fill="black"/>
        <path d="M111.211 30.2258C111.218 30.5014 111.138 30.7721 110.983 31C110.827 31.2279 110.605 31.4016 110.346 31.4968C110.666 31.5451 110.958 31.7044 111.172 31.9467C111.386 32.189 111.507 32.4988 111.515 32.8218C111.515 33.7648 110.728 34.3218 109.535 34.3218H107.111V28.8608H109.434C110.51 28.8608 111.212 29.3908 111.212 30.2258M110.588 30.3108C110.588 29.7658 110.159 29.4108 109.38 29.4108H107.719V31.2898H109.333C110.074 31.2898 110.588 30.9548 110.588 30.3068M110.888 32.7788C110.888 32.1788 110.388 31.8358 109.438 31.8358H107.715V33.7608H109.551C110.378 33.7608 110.892 33.3948 110.892 32.7788" fill="black"/>
        <path d="M116.498 34.3188L114.915 32.1978H113.356V34.3188H112.74V28.8618H115.087C116.287 28.8618 117.059 29.5088 117.059 30.4918C117.06 30.8963 116.908 31.2863 116.633 31.5831C116.359 31.88 115.982 32.0617 115.578 32.0918L117.254 34.3218L116.498 34.3188ZM115.04 29.4348H113.356V31.6448H115.032C115.851 31.6448 116.432 31.2238 116.432 30.5138C116.432 29.8358 115.917 29.4298 115.032 29.4298" fill="black"/>
        <path d="M120.912 34.4119C120.353 34.418 119.804 34.258 119.336 33.9521C118.868 33.6461 118.502 33.2081 118.283 32.6935C118.065 32.179 118.004 31.6111 118.108 31.0619C118.213 30.5127 118.478 30.007 118.871 29.6089C119.263 29.2107 119.765 28.9382 120.313 28.8257C120.861 28.7133 121.429 28.7661 121.947 28.9773C122.465 29.1886 122.908 29.5488 123.22 30.0124C123.533 30.4759 123.701 31.0218 123.703 31.5809C123.715 31.9526 123.651 32.3229 123.516 32.6693C123.381 33.0157 123.176 33.3309 122.915 33.5957C122.654 33.8606 122.342 34.0695 121.997 34.2098C121.653 34.3501 121.283 34.4189 120.912 34.4119ZM120.912 29.3369C120.622 29.3378 120.336 29.3973 120.07 29.5118C119.804 29.6264 119.564 29.7936 119.364 30.0033C119.165 30.2131 119.01 30.4611 118.908 30.7324C118.807 31.0037 118.762 31.2927 118.776 31.5819C118.763 31.8728 118.81 32.1632 118.912 32.4357C119.015 32.7083 119.171 32.9574 119.372 33.1684C119.572 33.3793 119.814 33.5477 120.081 33.6636C120.348 33.7795 120.635 33.8405 120.927 33.8429C121.216 33.8419 121.502 33.7823 121.768 33.6677C122.034 33.5531 122.274 33.3859 122.474 33.1762C122.673 32.9664 122.828 32.7185 122.929 32.4472C123.031 32.176 123.076 31.8871 123.063 31.5979C123.075 31.3069 123.028 31.0166 122.925 30.744C122.823 30.4715 122.666 30.2223 122.466 30.0114C122.265 29.8004 122.024 29.632 121.757 29.5162C121.49 29.4003 121.203 29.3393 120.912 29.3369Z" fill="black"/>
        <path d="M126.697 34.3182H126.073V29.4352H124.236V28.8662H128.523V29.4352H126.691L126.697 34.3182Z" fill="black"/>
        <path d="M130.299 31.8628V34.3188H129.683V28.8608H130.299V31.2858H133.449V28.8608H134.065V34.3178H133.449V31.8628H130.299Z" fill="black"/>
        <path d="M139.555 29.4228H136.227V31.2858H139.205V31.8468H136.227V33.7578H139.594V34.3188H135.611V28.8608H139.555V29.4228Z" fill="black"/>
        <path d="M144.591 34.3188L143.008 32.1978H141.449V34.3188H140.833V28.8618H143.181C144.381 28.8618 145.153 29.5088 145.153 30.4918C145.154 30.8963 145.002 31.2863 144.727 31.5831C144.452 31.88 144.075 32.0617 143.672 32.0918L145.348 34.3218L144.591 34.3188ZM143.134 29.4348H141.45V31.6448H143.126C143.945 31.6448 144.526 31.2238 144.526 30.5138C144.526 29.8358 144.011 29.4298 143.126 29.4298" fill="black"/>
        <path d="M148.428 31.2942C149.644 31.5592 150.206 32.0032 150.206 32.8452C150.206 33.7892 149.426 34.3972 148.342 34.3972C147.514 34.4055 146.715 34.0926 146.113 33.5242L146.495 33.0722C146.74 33.3193 147.032 33.5149 147.353 33.6474C147.675 33.7798 148.02 33.8464 148.367 33.8432C149.099 33.8432 149.583 33.4612 149.583 32.9082C149.583 32.3932 149.31 32.1082 148.164 31.8632C146.909 31.5902 146.332 31.1852 146.332 30.2812C146.345 30.0627 146.403 29.8491 146.501 29.6537C146.6 29.4582 146.737 29.2849 146.905 29.1445C147.073 29.004 147.268 28.8993 147.478 28.8369C147.688 28.7744 147.908 28.7554 148.125 28.7812C148.825 28.7612 149.508 29.0001 150.043 29.4522L149.684 29.9272C149.248 29.5462 148.689 29.336 148.109 29.3352C147.4 29.3352 146.947 29.7252 146.947 30.2242C146.947 30.7462 147.228 31.0352 148.429 31.2922" fill="black"/>
        <path d="M155.704 31.6602H153.537V32.2922H155.704V31.6602Z" fill="black"/>
        <path d="M161.216 34.3189H159.321V28.8619H161.216C161.589 28.8383 161.963 28.8913 162.315 29.0177C162.666 29.1441 162.988 29.3412 163.261 29.5969C163.533 29.8526 163.75 30.1614 163.899 30.5043C164.047 30.8471 164.124 31.2168 164.124 31.5904C164.124 31.9641 164.047 32.3338 163.899 32.6766C163.75 33.0195 163.533 33.3283 163.261 33.584C162.988 33.8397 162.666 34.0368 162.315 34.1632C161.963 34.2896 161.589 34.3426 161.216 34.3189ZM161.216 29.4309H159.934V33.7499H161.213C161.506 33.764 161.798 33.7186 162.072 33.6164C162.346 33.5142 162.597 33.3574 162.809 33.1555C163.021 32.9536 163.189 32.7108 163.305 32.4418C163.42 32.1727 163.479 31.8831 163.479 31.5904C163.479 31.2978 163.42 31.0082 163.305 30.7391C163.189 30.4701 163.021 30.2273 162.809 30.0254C162.597 29.8235 162.346 29.6667 162.072 29.5645C161.798 29.4623 161.506 29.4169 161.213 29.4309" fill="black"/>
        <path d="M166.089 28.8608H165.473V34.3178H166.089V28.8608Z" fill="black"/>
        <path d="M169.646 31.2942C170.862 31.5592 171.424 32.0032 171.424 32.8452C171.424 33.7892 170.644 34.3972 169.56 34.3972C168.732 34.4055 167.933 34.0926 167.331 33.5242L167.713 33.0722C167.958 33.3193 168.249 33.5149 168.571 33.6474C168.892 33.7798 169.237 33.8464 169.585 33.8432C170.317 33.8432 170.801 33.4612 170.801 32.9082C170.801 32.3932 170.528 32.1082 169.382 31.8632C168.127 31.5902 167.551 31.1852 167.551 30.2812C167.564 30.0627 167.622 29.8491 167.72 29.6537C167.819 29.4582 167.956 29.2849 168.124 29.1445C168.292 29.004 168.487 28.8993 168.697 28.8369C168.906 28.7744 169.127 28.7554 169.344 28.7812C170.044 28.7612 170.727 29.0001 171.262 29.4522L170.903 29.9272C170.467 29.5462 169.907 29.336 169.328 29.3352C168.619 29.3352 168.167 29.7252 168.167 30.2242C168.167 30.7462 168.447 31.0352 169.648 31.2922" fill="black"/>
        <path d="M174.627 34.3182H174.003V29.4352H172.167V28.8662H176.454V29.4352H174.627V34.3182Z" fill="black"/>
        <path d="M181.372 34.3188L179.789 32.1978H178.23V34.3188H177.614V28.8618H179.961C181.161 28.8618 181.933 29.5088 181.933 30.4918C181.934 30.8963 181.782 31.2863 181.507 31.5831C181.233 31.88 180.856 32.0617 180.452 32.0918L182.128 34.3218L181.372 34.3188ZM179.914 29.4348H178.23V31.6448H179.906C180.725 31.6448 181.306 31.2238 181.306 30.5138C181.306 29.8358 180.791 29.4298 179.906 29.4298" fill="black"/>
        <path d="M183.922 28.8608H183.306V34.3178H183.922V28.8608Z" fill="black"/>
        <path d="M189.621 30.2258C189.628 30.5014 189.548 30.7721 189.393 31C189.238 31.2279 189.015 31.4016 188.756 31.4968C189.076 31.5451 189.368 31.7044 189.582 31.9467C189.796 32.189 189.917 32.4988 189.925 32.8218C189.925 33.7648 189.138 34.3218 187.946 34.3218H185.521V28.8608H187.843C188.919 28.8608 189.621 29.3908 189.621 30.2258ZM188.997 30.3108C188.997 29.7658 188.568 29.4108 187.789 29.4108H186.128V31.2898H187.742C188.482 31.2898 188.996 30.9548 188.996 30.3068M189.296 32.7788C189.296 32.1788 188.796 31.8358 187.846 31.8358H186.123V33.7608H187.955C188.782 33.7608 189.296 33.3948 189.296 32.7788Z" fill="black"/>
        <path d="M195.61 31.9868C195.63 32.2955 195.587 32.605 195.483 32.8965C195.38 33.188 195.218 33.4553 195.007 33.6821C194.797 33.9089 194.543 34.0904 194.26 34.2156C193.977 34.3408 193.671 34.407 193.362 34.4102C193.053 34.4134 192.746 34.3535 192.461 34.2342C192.175 34.1149 191.917 33.9386 191.702 33.7162C191.487 33.4938 191.32 33.23 191.21 32.9407C191.101 32.6514 191.051 32.3429 191.065 32.0338V28.8608H191.681V31.9948C191.681 33.1718 192.305 33.8348 193.35 33.8348C194.355 33.8348 194.995 33.2258 194.995 32.0348V28.8608H195.611L195.61 31.9868Z" fill="black"/>
        <path d="M199.563 34.4119C198.828 34.3896 198.13 34.0809 197.619 33.5517C197.108 33.0225 196.823 32.3146 196.826 31.5787C196.829 30.8429 197.119 30.1373 197.635 29.6123C198.151 29.0873 198.851 28.7843 199.586 28.7679C199.982 28.7558 200.376 28.8265 200.742 28.9755C201.109 29.1244 201.44 29.3484 201.715 29.6329L201.294 30.0849C201.074 29.8505 200.809 29.6634 200.514 29.5348C200.219 29.4062 199.901 29.3389 199.579 29.3369C199.007 29.3732 198.469 29.6262 198.076 30.0447C197.684 30.4631 197.465 31.0155 197.465 31.5894C197.465 32.1634 197.684 32.7157 198.076 33.1342C198.469 33.5526 199.007 33.8057 199.579 33.8419C199.912 33.8416 200.241 33.7714 200.544 33.6358C200.848 33.5002 201.119 33.3023 201.341 33.0549L201.746 33.4549C201.474 33.7634 201.137 34.0089 200.76 34.1745C200.383 34.3401 199.975 34.4218 199.563 34.4139" fill="black"/>
        <path d="M203.493 28.8608H202.877V34.3178H203.493V28.8608Z" fill="black"/>
        <path d="M207.624 34.4119C207.065 34.418 206.517 34.258 206.049 33.9521C205.581 33.6461 205.215 33.2081 204.996 32.6935C204.778 32.179 204.717 31.6111 204.821 31.0619C204.926 30.5127 205.191 30.007 205.584 29.6089C205.976 29.2107 206.478 28.9382 207.026 28.8257C207.574 28.7133 208.142 28.7661 208.66 28.9773C209.178 29.1886 209.621 29.5488 209.933 30.0124C210.246 30.4759 210.414 31.0218 210.415 31.5809C210.428 31.9526 210.364 32.3229 210.229 32.6693C210.093 33.0157 209.889 33.3309 209.628 33.5957C209.367 33.8606 209.055 34.0695 208.71 34.2098C208.366 34.3501 207.996 34.4189 207.624 34.4119ZM207.624 29.3369C207.335 29.3378 207.049 29.3973 206.783 29.5118C206.517 29.6264 206.277 29.7936 206.077 30.0033C205.878 30.2131 205.723 30.4611 205.621 30.7324C205.52 31.0037 205.475 31.2927 205.488 31.5819C205.476 31.8728 205.523 32.1632 205.625 32.4357C205.728 32.7083 205.884 32.9574 206.085 33.1684C206.285 33.3793 206.526 33.5477 206.794 33.6636C207.061 33.7795 207.348 33.8405 207.639 33.8429C207.929 33.8419 208.215 33.7823 208.481 33.6677C208.747 33.5531 208.987 33.3859 209.186 33.1762C209.386 32.9664 209.541 32.7185 209.642 32.4472C209.744 32.176 209.789 31.8871 209.775 31.5979C209.787 31.3069 209.741 31.0166 209.638 30.744C209.536 30.4715 209.379 30.2223 209.179 30.0114C208.978 29.8004 208.737 29.632 208.47 29.5162C208.202 29.4003 207.916 29.3393 207.624 29.3369Z" fill="black"/>
        <path d="M215.735 28.8608H216.335V34.3178H215.843L212.319 29.8438V34.3178H211.719V28.8608H212.296L215.733 33.2338L215.735 28.8608Z" fill="black"/>
        <path d="M221.824 29.4228H218.5V31.2858H221.478V31.8468H218.5V33.7578H221.868V34.3188H217.88V28.8608H221.825L221.824 29.4228Z" fill="black"/>
        <path d="M225.061 31.2942C226.277 31.5592 226.839 32.0032 226.839 32.8452C226.839 33.7892 226.059 34.3972 224.975 34.3972C224.147 34.4055 223.348 34.0926 222.746 33.5242L223.128 33.0722C223.373 33.3193 223.664 33.5149 223.986 33.6474C224.308 33.7798 224.652 33.8464 225 33.8432C225.732 33.8432 226.216 33.4612 226.216 32.9082C226.216 32.3932 225.943 32.1082 224.797 31.8632C223.542 31.5902 222.966 31.1852 222.966 30.2812C222.979 30.0627 223.037 29.8491 223.135 29.6537C223.234 29.4582 223.371 29.2849 223.539 29.1445C223.707 29.004 223.902 28.8993 224.112 28.8369C224.321 28.7744 224.542 28.7554 224.759 28.7812C225.459 28.7612 226.142 29.0001 226.677 29.4522L226.318 29.9272C225.882 29.5462 225.322 29.336 224.743 29.3352C224.034 29.3352 223.581 29.7252 223.581 30.2242C223.581 30.7462 223.862 31.0352 225.063 31.2922" fill="black"/>
    </g>
</svg>
